…
``` r
ny_noaa <- ny_noaa %>%
  mutate(., year = year(date),
         month = month(date),
         day = weekdays(date))

ny_noaa %>%
  group_by(snow) %>%
  count(snow)
```

    ## # A tibble: 282 x 2
    ## # Groups:   snow [282]
    ##     snow       n
    ##    <dbl>   <int>
    ##  1  -1.3       1
    ##  2   0   2008508
    ##  3   0.3    8790
    ##  4   0.5    9748
    ##  5   0.8    9962
    ##  6   1      5106
    ##  7   1.3   23095
    ##  8   1.5    3672
    ##  9   1.8    3226
    ## 10   2      4797
    ## # ... with 272 more rows
…
